{
    "headless": false,
    "processedWebsitesInterval": 25,
    "loadPageTimeout": 60,
    "waitPeriod": 5,
    "waitUntil": "load",
    "ignoreHTTPSErrors": false,
    "windowWidth": 1920,
    "windowHeight": 1050,
    "windowPosX": 1921,
    "windowPosY": 0,
    "devTools": false,
    "getProtocolTimeout": 10,
    "screenshotTimeout": 5,
    "hardTimeout": 360,
    "curlResolve": true,
    "acceptOnlyTextAdsTxt": true,
    "userAgent": "Mozilla/5.0 (X11; Linux x86_64) AppleWebKit/537.36 (KHTML, like Gecko) Chrome/87.0.4272.0 Safari/537.36",
    "scrollTimeout": 5,
    "detectAds": false,
    "doRandomWalk": false,
    "adVisitTimeout": 2
}